<svg width="32" height="32" viewBox="0 0 32 32" fill="none" xmlns="http://www.w3.org/2000/svg">
    <circle cx="16" cy="16" r="15.5" stroke="#454545"/>
    <path d="M15.98 23.18C18.42 23.18 20.24 21.64 20.24 19.18C20.24 17.56 19.24 16.04 17.48 15.78V15.72C18.92 15.14 19.7 13.8 19.7 12.34C19.7 10.14 18.28 8.82 16 8.82C14.22 8.82 12.82 9.66 12.26 11.12L12.88 11.78C13.42 10.64 14.34 9.86 15.92 9.86C17.54 9.86 18.6 10.78 18.6 12.48C18.6 14.12 17.3 15.32 15.98 15.32H14.9V16.36H16.1C17.84 16.36 19.14 17.48 19.14 19.14C19.14 20.84 17.94 22.14 15.98 22.14C14.64 22.14 13.24 21.54 12.52 20.04L11.9 20.76C12.62 22.44 14.2 23.18 15.98 23.18Z" fill="#454545"/>
</svg>
