<svg width="23" height="13" viewBox="0 0 23 13" fill="none" xmlns="http://www.w3.org/2000/svg">
    <rect x="9.89941" y="11.3137" width="16" height="2" transform="rotate(-45 9.89941 11.3137)" fill="#454545"/>
    <rect x="1.41406" width="16" height="2" transform="rotate(45 1.41406 0)" fill="#454545"/>
</svg>
