<svg width="26" height="26" viewBox="0 0 26 26" fill="none" xmlns="http://www.w3.org/2000/svg">
    <rect x="26" y="14" width="26" height="2" transform="rotate(-180 26 14)" fill="white"/>
    <rect x="12" y="26" width="26" height="2" transform="rotate(-90 12 26)" fill="white"/>
</svg>
