<svg width="20" height="20" viewBox="0 0 20 20" fill="none" xmlns="http://www.w3.org/2000/svg">
    <rect x="18.3848" y="19.799" width="26" height="2" transform="rotate(-135 18.3848 19.799)" fill="#454545"/>
    <rect y="18.3849" width="26" height="2" transform="rotate(-45 0 18.3849)" fill="#454545"/>
</svg>
