<svg width="21" height="21" viewBox="0 0 21 21" fill="none" xmlns="http://www.w3.org/2000/svg">
    <circle cx="10.5" cy="10.5" r="4.25" stroke="white" stroke-width="2"/>
    <ellipse cx="16.625" cy="4.375" rx="1.3125" ry="1.3125" fill="white"/>
    <rect x="0.5" y="0.5" width="20" height="20" rx="2.5" stroke="white"/>
</svg>
